
*****
Node Name: B0_inp_0
Node ID: 0
Links: 1
	L(1):8
*****
*****
Node Name: B0_inp_1
Node ID: 1
Links: 1
	L(1):8
*****
*****
Node Name: B0_inp_2
Node ID: 2
Links: 1
	L(1):9
*****
*****
Node Name: B0_inp_3
Node ID: 3
Links: 1
	L(1):9
*****
*****
Node Name: B0_inp_4
Node ID: 4
Links: 1
	L(1):10
*****
*****
Node Name: B0_inp_5
Node ID: 5
Links: 1
	L(1):10
*****
*****
Node Name: B0_inp_6
Node ID: 6
Links: 1
	L(1):11
*****
*****
Node Name: B0_inp_7
Node ID: 7
Links: 1
	L(1):11
*****
*****
Node Name: B0_switch_0_00
Node ID: 8
Links: 4
	L(1):12
	L(2):14
	L(3):0
	L(4):1
*****
*****
Node Name: B0_switch_0_01
Node ID: 9
Links: 4
	L(1):13
	L(2):15
	L(3):2
	L(4):3
*****
*****
Node Name: B0_switch_0_10
Node ID: 10
Links: 4
	L(1):14
	L(2):12
	L(3):4
	L(4):5
*****
*****
Node Name: B0_switch_0_11
Node ID: 11
Links: 4
	L(1):15
	L(2):13
	L(3):6
	L(4):7
*****
*****
Node Name: B0_switch_1_00
Node ID: 12
Links: 4
	L(1):8
	L(2):10
	L(3):16
	L(4):17
*****
*****
Node Name: B0_switch_1_01
Node ID: 13
Links: 4
	L(1):9
	L(2):11
	L(3):17
	L(4):16
*****
*****
Node Name: B0_switch_1_10
Node ID: 14
Links: 4
	L(1):8
	L(2):10
	L(3):18
	L(4):19
*****
*****
Node Name: B0_switch_1_11
Node ID: 15
Links: 4
	L(1):9
	L(2):11
	L(3):19
	L(4):18
*****
*****
Node Name: B0_switch_2_00
Node ID: 16
Links: 4
	L(1):12
	L(2):13
	L(3):8
	L(4):9
*****
*****
Node Name: B0_switch_2_01
Node ID: 17
Links: 4
	L(1):12
	L(2):13
	L(3):10
	L(4):11
*****
*****
Node Name: B0_switch_2_10
Node ID: 18
Links: 4
	L(1):14
	L(2):15
	L(3):12
	L(4):13
*****
*****
Node Name: B0_switch_2_11
Node ID: 19
Links: 4
	L(1):14
	L(2):15
	L(3):14
	L(4):15
*****
*****
Node Name: B0_out_0
Node ID: 8
Links: 1
	L(1):16
*****
*****
Node Name: B0_out_1
Node ID: 9
Links: 1
	L(1):16
*****
*****
Node Name: B0_out_2
Node ID: 10
Links: 1
	L(1):17
*****
*****
Node Name: B0_out_3
Node ID: 11
Links: 1
	L(1):17
*****
*****
Node Name: B0_out_4
Node ID: 12
Links: 1
	L(1):18
*****
*****
Node Name: B0_out_5
Node ID: 13
Links: 1
	L(1):18
*****
*****
Node Name: B0_out_6
Node ID: 14
Links: 1
	L(1):19
*****
*****
Node Name: B0_out_7
Node ID: 15
Links: 1
	L(1):19
*****